[{
  "name": "Amedia, Californication",
  "samples": [
    {
      "name": "s5",
      "uri": "http://meta.vcdn.biz/2cd80104a3dc7468710f97084bfffc40_megogo/vod/hls/b/450_900_1350_1500_2000_5000/u_sid/0/o/57223551/u_uid/219224312/u_vod/4/u_device/smotreshka2/u_srvc/23751/te/1594391550/a/0/type.amlst/playlist.m3u8"
    },
    {
      "name": "s6",
      "uri": "http://meta.vcdn.biz/c1b9b65e2eb6f92076e8791c5bfd7862_megogo/vod/hls/b/450_900_1350_1500_2000_5000/u_sid/0/o/57223611/u_uid/219224312/u_vod/4/u_device/smotreshka2/u_srvc/23751/te/1594391550/a/0/type.amlst/playlist.m3u8"
    },
    {
      "name": "s7",
      "uri": "http://meta.vcdn.biz/a193d82c67516c2188756ef6746cd4d4_megogo/vod/hls/b/450_900_1350_1500_2000_5000/u_sid/0/o/57223981/u_uid/219224312/u_vod/4/u_device/smotreshka2/u_srvc/23751/te/1594391550/a/0/type.amlst/playlist.m3u8"
    },
    {
      "name": "s8",
      "uri": "http://meta.vcdn.biz/76cbfff5c6b136ac5e233d73009b9d18_megogo/vod/hls/b/450_900_1350_1500_2000_5000/u_sid/0/o/57225771/u_uid/219224312/u_vod/4/u_device/smotreshka2/u_srvc/23751/te/1594391550/a/0/type.amlst/playlist.m3u8"
    },
    {
      "name": "s9",
      "uri": "http://meta.vcdn.biz/34f3c112cfbccdf886f271ddd1564f6d_megogo/vod/hls/b/450_900_1350_1500_2000_5000/u_sid/0/o/57225781/u_uid/219224312/u_vod/4/u_device/smotreshka2/u_srvc/23751/te/1594391550/a/0/type.amlst/playlist.m3u8"
    },
    {
      "name": "s10",
      "uri": "http://meta.vcdn.biz/eb1a0d94a4f5e7c53ddb2415f435b178_megogo/vod/hls/b/450_900_1350_1500_2000_5000/u_sid/0/o/57225811/u_uid/219224312/u_vod/4/u_device/smotreshka2/u_srvc/23751/te/1594391550/a/0/type.amlst/playlist.m3u8"
    },
    {
      "name": "s11",
      "uri": "http://meta.vcdn.biz/14e4eb0b956b6dd1ad1f2370171218f7_megogo/vod/hls/b/450_900_1350_1500_2000_5000/u_sid/0/o/57225801/u_uid/219224312/u_vod/4/u_device/smotreshka2/u_srvc/23751/te/1594391550/a/0/type.amlst/playlist.m3u8"
    },
    {
      "name": "s12",
      "uri": "http://meta.vcdn.biz/0beec44bb4ba18caae0b7f90395c1e05_megogo/vod/hls/b/450_900_1350_1500_2000_5000/u_sid/0/o/48678651/u_uid/219224312/u_vod/4/u_device/smotreshka2/u_srvc/23751/te/1594391550/a/0/type.amlst/playlist.m3u8"
    }
  ]
}]
